{
  "type": "minecraft:crafting_shapeless",
  "ingredients": [
    {
            "item": "linkingbooks:linking_panel"
        },
        {
            "item": "minecraft:leather"
        },
        {
            "tag": "forge:dyes/blue"
        }
  ],
  "result": {
    "item": "linkingbooks:blue_blank_linking_book"
  }
}